﻿Sl.No,studentnumber,studentname,gender,email,contactnumber,password
1,12210001,Jampel Dorji,female,12210001.gcit@rub.edu.bt,17302980,jampel@12210001
2,12210002,Sonam Tshering,male,12210002.gcit@rub.edu.bt,17334478,paika$43
3,12210003,Chencho Dema,female,12210003.gcit@rub.edu.bt,77559023,dema@zaq123
4,12210004,Pema Yeshey Tshering,female,12210004.gcit@rub.edu.bt,17232140,tobi@89
5,12210005,Dhendup Tshering,male,12210005.gcit@rub.edu.bt,77202012,dendup#23
6,12210006,Dorji,female,12210006.gcit@rub.edu.bt,17663467,#d$123
7,12210045,Dema,female,12210045.gcit@rub.edu.bt,77984558,%dema#45
8,12210067,Sonam,female,12210067.gcit@rub.edu.bt,17454590,werr.iop
9,12210086,sheldon,female,12210015.gcit@rub.edu.bt,77665454,dfdj@123
